META preprocessing
…
#how many patients are there for each assessment type?
patient_kodap |>
  summarise(
    n_patienten = n_distinct(case_nr),
    .by = assessment_type
  ) |> 
  arrange(desc(n_patienten))

# A tibble: 28 × 2
   assessment_type                        n_patienten
   <chr>                                        <int>
 1 KZT1-DUPost                                   1883
 2 Diagnostisches Interview ab 01.04.2017        1756
 3 KZT2-DUPost                                   1478
 4 DU-Kat6                                        840
 5 LZT1-DUPost                                    756
 6 DU-Kat12                                       682
 7 DU-Kat24                                       555
 8 LZT2-DUPost                                    203
 9 Du-Kat24 ohne Abrechnung                       145
10 KiJu-Kat24                                     137
# ℹ 18 more rows
…
#how many patients are there for each assessment type?
therapist_kodap |>
  summarise(
    n_patienten = n_distinct(case_nr),
    .by = assessment_type
  ) |> 
  arrange(desc(n_patienten))

# A tibble: 28 × 2
   assessment_type                        n_patienten
   <chr>                                        <int>
 1 Diagnostisches Interview ab 01.04.2017        2735
 2 KZT1-DUPost                                   1552
 3 KZT2-DUPost                                   1112
 4 LZT1-DUPost                                    535
 5 Minidips-Kat6                                  151
 6 Minidips-Kat12                                 138
 7 LZT2-DUPost                                    130
 8 Minidips-Kat24                                 110
 9 DU-Prä                                          86
10 Minidips-Kat24-Video                            48
# ℹ 18 more rows
…
# this table codes the answescale_value of item_no 5 to a dsm-v diagnosis
dsmv_codebook <- read_xlsx("/Volumes/meta_data/raw/raw_selfreport/DSMV_Diagno_inhalt_Code.xlsx",
                           col_names = c("scalevalue","dsmv_diagnosis","assessment_id"),
                           skip = 1)

#how many patients are there for each assessment type?
dsmv_master |> 
  summarise(
    n_patients = n_distinct(case_nr),
    .by = assessment_type
  ) |> 
  arrange(desc(n_patients))

# A tibble: 102 × 2
   assessment_type                        n_patients
   <chr>                                       <int>
 1 Sprechstunde1                                8206
 2 KiJu-Sprechstunde1                           3496
 3 Diagnostisches Interview ab 01.04.2017       3173
 4 KZT1-DUPost                                  1744
 5 Eltern-DIPS(Eltern)                          1532
 6 KZT1-DU4                                     1279
 7 KZT2-DUPost                                  1233
 8 KiJu-Sprechstd.(Kinder-Dips2)                1095
 9 Minidips-Kat6                                 957
10 EG_KiJu_Krise                                 740
# ℹ 92 more rows
…
In [5]:

bdi_master <- read_xlsx("/Volumes/meta_data/raw/raw_selfreport/BDI II_ab2017.xlsx",
                        col_names = c("case_nr", "patient_chiffre","patient_sex","patient_dateofbirth","assessment_date","assessment_type","assessment_id","assessment_name","item_no","answerscale_value","therapist_no","therapist_sex","therapist_dateofbirth"),
                        skip = 1)

#how many patients are there for each assessment type?
bdi_master |>
  summarise(
    n_patients = n_distinct(case_nr),
    .by = assessment_type
  ) |> 
  arrange(desc(n_patients))

# A tibble: 49 × 2
   assessment_type n_patients
   <chr>                <int>
 1 DU-Prä                3036
 2 KZT1-DUPost           2122
 3 KZT2-DUPost           1667
 4 KZT1-DU4              1431
 5 DU-Kat6               1034
 6 LZT1-DUPost            797
 7 LZT-DU40               464
 8 DU-Post                254
 9 LZT2-DUPost            204
10 DU30_Erwachsene        184
# ℹ 39 more rows
…
In [6]:

bsi_master <- read_xlsx("/Volumes/meta_data/raw/raw_selfreport/BSI_ab2017.xlsx", 
                        col_names = c("case_nr", "patient_chiffre", "patient_sex", "patient_dateofbirth", "assessment_date", "assessment_type", "assessment_id", "assessment_name", "item_no", "answerscale_value", "therapist_no", "therapist_sex", "therapist_dateofbirth"), 
                        skip = 1)

#how many patients are there for each assessment type?
bsi_master |>
  summarise(
    n_patients = n_distinct(case_nr),
    .by = assessment_type
  ) |> 
  arrange(desc(n_patients))

# A tibble: 47 × 2
   assessment_type                        n_patients
   <chr>                                       <int>
 1 Diagnostisches Interview ab 01.04.2017       2238
 2 KZT1-DUPost                                  2130
 3 KZT2-DUPost                                  1662
 4 KZT1-DU4                                     1434
 5 DU-Kat6                                      1065
 6 DU-Kat12                                      853
 7 LZT1-DUPost                                   800
 8 DU-Kat24                                      675
 9 LZT-DU40                                      464
10 DU-Post                                       263
# ℹ 37 more rows
…
In [7]:

dass_master <- read_xlsx("/Volumes/meta_data/raw/raw_selfreport/DASS_ab2017.xlsx",
                        col_names = c("case_nr", "patient_chiffre","patient_sex","patient_dateofbirth","assessment_date","assessment_type","assessment_id","assessment_name","item_no","answerscale_value","therapist_no","therapist_sex","therapist_dateofbirth"),
                        skip = 1)

#how many patients are there for each assessment type?
dass_master |>
  summarise(
    n_patients = n_distinct(case_nr),
    .by = assessment_type
  ) |> 
  arrange(desc(n_patients))

# A tibble: 32 × 2
   assessment_type n_patients
   <chr>                <int>
 1 DU-Prä                3013
 2 KZT1-DUPost           2093
 3 KZT2-DUPost           1646
 4 KZT1-DU4              1428
 5 DU-Kat6               1068
 6 DU-Kat12               856
 7 LZT1-DUPost            791
 8 DU-Kat24               678
 9 LZT-DU40               459
10 DU-Post                263
# ℹ 22 more rows
…
In [8]:

gas_master <- read_xlsx("/Volumes/meta_data/raw/raw_selfreport/GAS_ab2017.xlsx",
                        col_names = c("case_nr", "patient_chiffre","patient_sex","patient_dateofbirth","assessment_date","assessment_type","assessment_id","assessment_name","item_no","answerscale_value","therapist_no","therapist_sex","therapist_dateofbirth"),
                        skip = 1)

#how many patients are there for each assessment type?
gas_master |>
  summarise(
    n_patients = n_distinct(case_nr),
    .by = assessment_type
  ) |> 
  arrange(desc(n_patients))

# A tibble: 31 × 2
   assessment_type n_patients
   <chr>                <int>
 1 KZT1-DUPost           1567
 2 KZT2-DUPost           1308
 3 LZT1-DUPost            663
 4 DU-Kat6                627
 5 DU-Kat12               452
 6 LZT-DU40               395
 7 DU-Kat24               322
 8 DU-Post                241
 9 DU30_Erwachsene        175
10 DU20_Erwachsene        164
# ℹ 21 more rows
…
In [9]:

pmh_master <- read_xlsx("/Volumes/meta_data/raw/raw_selfreport/Seelische_Gesundheit_ab2017.xlsx",
                        col_names = c("case_nr", "patient_chiffre","patient_sex","patient_dateofbirth","assessment_date","assessment_type","assessment_id","assessment_name","item_no","answerscale_value","therapist_no","therapist_sex","therapist_dateofbirth"),
                        skip = 1)

#how many patients are there for each assessment type?
pmh_master |>
  summarise(
    n_patients = n_distinct(case_nr),
    .by = assessment_type
  ) |> 
  arrange(desc(n_patients))

# A tibble: 33 × 2
   assessment_type n_patients
   <chr>                <int>
 1 DU-Prä                3017
 2 KZT1-DUPost           2116
 3 KZT2-DUPost           1658
 4 KZT1-DU4              1429
 5 DU-Kat6               1061
 6 DU-Kat12               854
 7 LZT1-DUPost            790
 8 DU-Kat24               667
 9 LZT-DU40               460
10 DU-Post                258
# ℹ 23 more rows
…
In [10]:

glob_master <- read_xlsx("/Volumes/meta_data/raw/raw_selfreport/Globbeurteilung_SuccessRating_ab2017.xlsx",
                        col_names = c("case_nr", "patient_chiffre","patient_sex","patient_dateofbirth","assessment_date","assessment_type","assessment_id","assessment_name","item_no","answerscale_value","therapist_no","therapist_sex","therapist_dateofbirth"),
                        skip = 1)

#how many patients are there for each assessment type? Therapist version is not assessed at FU measurements.
glob_master |> 
  summarise(
    n_patients = n_distinct(case_nr),
    .by = assessment_type
  ) |> 
  arrange(desc(n_patients))

# A tibble: 28 × 2
   assessment_type n_patients
   <chr>                <int>
 1 KZT1-DUPost           2140
 2 KZT2-DUPost           1669
 3 DU-Kat6               1070
 4 DU-Kat12               855
 5 LZT1-DUPost            800
 6 DU-Kat24               678
 7 LZT-DU40               463
 8 DU-Post                264
 9 LZT2-DUPost            203
10 DU30_Erwachsene        184
# ℹ 18 more rows
…
# 3) Unique list of affected patients
affected_cases <- inconsistent_cases |>
  distinct(case_nr) |>
  arrange(case_nr)

# Output
inconsistent_cases

# A tibble: 74 × 4
      case_nr assessment_type                     assessment_date     instrument
        <dbl> <chr>                               <dttm>              <chr>     
 1 2074101265 Diagnostisches Interview ab 01.04.… 2017-06-23 00:00:00 bsi       
 2 2074101265 Diagnostisches Interview ab 01.04.… 2019-04-02 00:00:00 bsi       
 3 2074101350 DU-Prä                              2017-05-16 00:00:00 bdi       
 4 2074101350 DU-Prä                              2019-05-08 00:00:00 bdi       
 5 2074101350 DU-Prä                              2017-05-16 00:00:00 pmh       
 6 2074101350 DU-Prä                              2019-05-08 00:00:00 pmh       
 7 2074101433 KZT1-DU4                            2017-06-27 00:00:00 bdi       
 8 2074101433 KZT1-DU4                            2017-08-01 00:00:00 bdi       
 9 2074101433 KZT1-DU4                            2017-06-27 00:00:00 bsi       
10 2074101433 KZT1-DU4                            2017-08-01 00:00:00 bsi       
# ℹ 64 more rows
…
